<?xml version="1.0" encoding="utf-8"?>
<COLLADA xmlns="http://www.collada.org/2005/11/COLLADASchema" version="1.4.1">
  <asset>
    <contributor>
      <author>Blender User</author>
      <authoring_tool>Blender 2.75.0 commit date:2015-07-07, commit time:14:56, hash:c27589e</authoring_tool>
    </contributor>
    <created>2016-02-25T23:35:43</created>
    <modified>2016-02-25T23:35:43</modified>
    <unit name="meter" meter="1"/>
    <up_axis>Z_UP</up_axis>
  </asset>
  <library_images/>
  <library_effects>
    <effect id="Book-effect">
      <profile_COMMON>
        <technique sid="common">
          <phong>
            <emission>
              <color sid="emission">0 0 0 1</color>
            </emission>
            <ambient>
              <color sid="ambient">0 0 0 1</color>
            </ambient>
            <diffuse>
              <color sid="diffuse">0.1144544 0.2505423 0.01592093 1</color>
            </diffuse>
            <specular>
              <color sid="specular">0.5 0.5 0.5 1</color>
            </specular>
            <shininess>
              <float sid="shininess">50</float>
            </shininess>
            <index_of_refraction>
              <float sid="index_of_refraction">1</float>
            </index_of_refraction>
          </phong>
        </technique>
      </profile_COMMON>
    </effect>
    <effect id="Paper-effect">
      <profile_COMMON>
        <technique sid="common">
          <lambert>
            <emission>
              <color sid="emission">0 0 0 1</color>
            </emission>
            <ambient>
              <color sid="ambient">0 0 0 1</color>
            </ambient>
            <diffuse>
              <color sid="diffuse">1 1 1 1</color>
            </diffuse>
            <index_of_refraction>
              <float sid="index_of_refraction">1</float>
            </index_of_refraction>
          </lambert>
        </technique>
      </profile_COMMON>
    </effect>
    <effect id="RedBook-effect">
      <profile_COMMON>
        <technique sid="common">
          <lambert>
            <emission>
              <color sid="emission">0 0 0 1</color>
            </emission>
            <ambient>
              <color sid="ambient">0 0 0 1</color>
            </ambient>
            <diffuse>
              <color sid="diffuse">0.4910162 0.01841087 0.01456457 1</color>
            </diffuse>
            <index_of_refraction>
              <float sid="index_of_refraction">1</float>
            </index_of_refraction>
          </lambert>
        </technique>
      </profile_COMMON>
    </effect>
  </library_effects>
  <library_materials>
    <material id="Book-material" name="Book">
      <instance_effect url="#Book-effect"/>
    </material>
    <material id="Paper-material" name="Paper">
      <instance_effect url="#Paper-effect"/>
    </material>
    <material id="RedBook-material" name="RedBook">
      <instance_effect url="#RedBook-effect"/>
    </material>
  </library_materials>
  <library_geometries>
    <geometry id="Plane-mesh" name="Plane">
      <mesh>
        <source id="Plane-mesh-positions">
          <float_array id="Plane-mesh-positions-array" count="912">-1.641095 -0.9002734 0.4233633 1.641095 -0.9002734 0.4233633 -1.641095 -0.9002734 0.4743888 1.641095 -0.9002734 0.4743888 -1.641095 1.458842 0.4743888 1.641095 1.458842 0.4743888 -1.641095 1.349492 0.4233633 1.641095 1.349492 0.4233633 -1.641095 1.349492 0.4743888 1.641095 1.349492 0.4743888 -1.641095 1.458842 0.8048896 1.641095 1.458842 0.8048896 -1.641095 1.349492 0.8048896 1.641095 1.349492 0.8048896 -1.641095 1.349492 0.8528783 1.641095 1.349492 0.8528783 -1.641095 -0.8999188 0.8048896 1.641095 -0.8999188 0.8048896 -1.641095 -0.8999188 0.8528783 1.641095 -0.8999188 0.8528783 -1.541489 -0.8158896 0.4729599 -1.541489 -0.8158896 0.8066603 -1.541489 1.391717 0.4729599 -1.541489 1.391717 0.8066603 1.541489 -0.8158896 0.4729599 1.541489 -0.8158896 0.8066603 1.541489 1.391717 0.4729599 1.541489 1.391717 0.8066603 -1.641095 1.458842 0.459095 -1.641095 1.42311 0.4233633 -1.641095 1.448376 0.4338288 1.641095 1.42311 0.4233633 1.641095 1.458842 0.459095 1.641095 1.448376 0.4338288 -1.641095 1.42311 0.8528783 -1.641095 1.458842 0.8171467 -1.641095 1.448376 0.8424128 1.641095 1.458842 0.8171467 1.641095 1.42311 0.8528783 1.641095 1.448376 0.8424128 0.06609576 -0.9002734 0.4233633 1.090305 -0.9002734 0.4233633 0.06609576 -0.9002734 0.4743888 1.090305 -0.9002734 0.4743888 1.090305 1.458842 0.4743888 0.06609565 1.458842 0.4743888 1.090305 1.349492 0.4743888 0.06609565 1.349492 0.4743888 0.06609576 1.349492 0.4233633 1.090305 1.349492 0.4233633 1.090305 1.458842 0.8048896 0.06609565 1.458842 0.8048896 1.090305 1.349492 0.8048896 0.06609565 1.349492 0.8048896 1.090305 1.349492 0.8528783 0.06609565 1.349492 0.8528783 1.090305 -0.8999187 0.8048896 0.06609565 -0.8999187 0.8048896 1.090305 -0.8999187 0.8528783 0.06609565 -0.8999187 0.8528783 1.090305 1.42311 0.4233633 0.06609565 1.42311 0.4233633 0.06609576 1.448376 0.4338288 1.090305 1.448376 0.4338288 0.06609576 1.458842 0.459095 1.090305 1.458842 0.459095 1.090305 1.458842 0.8171467 0.06609565 1.458842 0.8171467 0.06609576 1.448376 0.8424128 1.090305 1.448376 0.8424128 0.06609576 1.42311 0.8528783 1.090305 1.42311 0.8528783 -1.641095 -0.9002734 0 1.641095 -0.9002734 0 -1.641095 -0.9002734 0.0510255 1.641095 -0.9002734 0.0510255 -1.641095 1.458842 0.0510255 1.641095 1.458842 0.0510255 -1.641095 1.349492 0 1.641095 1.349492 0 -1.641095 1.349492 0.0510255 1.641095 1.349492 0.0510255 -1.641095 1.458842 0.3815263 1.641095 1.458842 0.3815263 -1.641095 1.349492 0.3815263 1.641095 1.349492 0.3815263 -1.641095 1.349492 0.4295151 1.641095 1.349492 0.4295151 -1.641095 -0.8999188 0.3815263 1.641095 -0.8999188 0.3815263 -1.641095 -0.8999188 0.4295151 1.641095 -0.8999188 0.4295151 -1.541489 -0.8158896 0.0495966 -1.541489 -0.8158896 0.383297 -1.541489 1.391717 0.0495966 -1.541489 1.391717 0.383297 1.541489 -0.8158896 0.0495966 1.541489 -0.8158896 0.383297 1.541489 1.391717 0.0495966 1.541489 1.391717 0.383297 -1.641095 1.458842 0.03573167 -1.641095 1.42311 0 -1.641095 1.448376 0.01046556 1.641095 1.42311 0 1.641095 1.458842 0.03573167 1.641095 1.448376 0.01046556 -1.641095 1.42311 0.4295151 -1.641095 1.458842 0.3937834 -1.641095 1.448376 0.4190495 1.641095 1.458842 0.3937834 1.641095 1.42311 0.4295151 1.641095 1.448376 0.4190495 0.06609576 -0.9002734 0 1.090305 -0.9002734 0 0.06609576 -0.9002734 0.0510255 1.090305 -0.9002734 0.0510255 1.090305 1.458842 0.0510255 0.06609565 1.458842 0.0510255 1.090305 1.349492 0.0510255 0.06609565 1.349492 0.0510255 0.06609576 1.349492 0 1.090305 1.349492 0 1.090305 1.458842 0.3815263 0.06609565 1.458842 0.3815263 1.090305 1.349492 0.3815263 0.06609565 1.349492 0.3815263 1.090305 1.349492 0.4295151 0.06609565 1.349492 0.4295151 1.090305 -0.8999187 0.3815263 0.06609565 -0.8999187 0.3815263 1.090305 -0.8999187 0.4295151 0.06609565 -0.8999187 0.4295151 1.090305 1.42311 0 0.06609565 1.42311 0 0.06609576 1.448376 0.01046556 1.090305 1.448376 0.01046556 0.06609576 1.458842 0.03573167 1.090305 1.458842 0.03573167 1.090305 1.458842 0.3937834 0.06609565 1.458842 0.3937834 0.06609576 1.448376 0.4190495 1.090305 1.448376 0.4190495 0.06609576 1.42311 0.4295151 1.090305 1.42311 0.4295151 -1.641095 1.349492 0.4233633 -1.641095 -0.9002734 0.4233633 -1.641095 -0.9002734 0.4233633 1.090305 -0.9002734 0.4233633 1.641095 -0.9002734 0.4233633 1.641095 -0.9002734 0.4233633 -1.641095 1.349492 0.4743888 -1.641095 1.349492 0.4743888 -1.641095 -0.9002734 0.4743888 -1.641095 -0.9002734 0.4743888 1.090305 -0.9002734 0.4743888 1.641095 -0.9002734 0.4743888 1.641095 -0.9002734 0.4743888 1.641095 1.349492 0.4233633 1.641095 1.349492 0.4743888 1.641095 1.349492 0.4743888 0.06609565 1.349492 0.4743888 0.06609565 1.349492 0.8048896 -1.641095 1.349492 0.8048896 -1.641095 1.349492 0.8048896 1.641095 1.458842 0.4743888 1.641095 1.458842 0.8048896 1.641095 1.349492 0.8048896 1.641095 1.349492 0.8048896 -1.641095 1.458842 0.4743888 -1.641095 1.458842 0.8048896 0.06609565 -0.8999187 0.8048896 -1.641095 -0.8999188 0.8048896 -1.641095 -0.8999188 0.8048896 0.06609565 -0.8999187 0.8528783 -1.641095 -0.8999188 0.8528783 -1.641095 -0.8999188 0.8528783 1.641095 -0.8999188 0.8528783 1.641095 -0.8999188 0.8528783 1.641095 -0.8999188 0.8048896 1.641095 -0.8999188 0.8048896 1.641095 1.349492 0.8528783 -1.641095 1.349492 0.8528783 -1.541489 -0.8158896 0.4729599 -1.541489 -0.8158896 0.4729599 -1.541489 -0.8158896 0.8066603 -1.541489 -0.8158896 0.8066603 -1.541489 1.391717 0.8066603 -1.541489 1.391717 0.8066603 -1.541489 1.391717 0.4729599 -1.541489 1.391717 0.4729599 1.541489 1.391717 0.8066603 1.541489 1.391717 0.8066603 1.541489 1.391717 0.4729599 1.541489 1.391717 0.4729599 1.541489 -0.8158896 0.8066603 1.541489 -0.8158896 0.8066603 1.541489 -0.8158896 0.4729599 1.541489 -0.8158896 0.4729599 1.641095 1.448376 0.4338288 1.641095 1.448376 0.4338288 1.641095 1.42311 0.4233633 -1.641095 1.42311 0.4233633 -1.641095 1.448376 0.4338288 -1.641095 1.448376 0.4338288 1.090305 1.448376 0.4338288 1.641095 1.458842 0.459095 -1.641095 1.458842 0.459095 1.641095 1.448376 0.8424128 1.641095 1.448376 0.8424128 1.641095 1.458842 0.8171467 -1.641095 1.458842 0.8171467 -1.641095 1.448376 0.8424128 -1.641095 1.448376 0.8424128 1.090305 1.448376 0.8424128 1.641095 1.42311 0.8528783 -1.641095 1.42311 0.8528783 0.06609576 -0.9002734 0.4233633 0.06609576 -0.9002734 0.4743888 1.090305 1.349492 0.4743888 1.090305 1.349492 0.8048896 1.090305 -0.8999187 0.8048896 1.090305 -0.8999187 0.8528783 0.06609576 1.448376 0.4338288 0.06609576 1.448376 0.8424128 -1.641095 1.349492 0 -1.641095 -0.9002734 0 -1.641095 -0.9002734 0 1.090305 -0.9002734 0 1.641095 -0.9002734 0 1.641095 -0.9002734 0 -1.641095 1.349492 0.0510255 -1.641095 1.349492 0.0510255 -1.641095 -0.9002734 0.0510255 -1.641095 -0.9002734 0.0510255 1.090305 -0.9002734 0.0510255 1.641095 -0.9002734 0.0510255 1.641095 -0.9002734 0.0510255 1.641095 1.349492 0 1.641095 1.349492 0.0510255 1.641095 1.349492 0.0510255 0.06609565 1.349492 0.0510255 0.06609565 1.349492 0.3815263 -1.641095 1.349492 0.3815263 -1.641095 1.349492 0.3815263 1.641095 1.458842 0.0510255 1.641095 1.458842 0.3815263 1.641095 1.349492 0.3815263 1.641095 1.349492 0.3815263 -1.641095 1.458842 0.0510255 -1.641095 1.458842 0.3815263 0.06609565 -0.8999187 0.3815263 -1.641095 -0.8999188 0.3815263 -1.641095 -0.8999188 0.3815263 0.06609565 -0.8999187 0.4295151 -1.641095 -0.8999188 0.4295151 -1.641095 -0.8999188 0.4295151 1.641095 -0.8999188 0.4295151 1.641095 -0.8999188 0.4295151 1.641095 -0.8999188 0.3815263 1.641095 -0.8999188 0.3815263 1.641095 1.349492 0.4295151 -1.641095 1.349492 0.4295151 -1.541489 -0.8158896 0.0495966 -1.541489 -0.8158896 0.0495966 -1.541489 -0.8158896 0.383297 -1.541489 -0.8158896 0.383297 -1.541489 1.391717 0.383297 -1.541489 1.391717 0.383297 -1.541489 1.391717 0.0495966 -1.541489 1.391717 0.0495966 1.541489 1.391717 0.383297 1.541489 1.391717 0.383297 1.541489 1.391717 0.0495966 1.541489 1.391717 0.0495966 1.541489 -0.8158896 0.383297 1.541489 -0.8158896 0.383297 1.541489 -0.8158896 0.0495966 1.541489 -0.8158896 0.0495966 1.641095 1.448376 0.01046556 1.641095 1.448376 0.01046556 1.641095 1.42311 0 -1.641095 1.42311 0 -1.641095 1.448376 0.01046556 -1.641095 1.448376 0.01046556 1.090305 1.448376 0.01046556 1.641095 1.458842 0.03573167 -1.641095 1.458842 0.03573167 1.641095 1.448376 0.4190495 1.641095 1.448376 0.4190495 1.641095 1.458842 0.3937834 -1.641095 1.458842 0.3937834 -1.641095 1.448376 0.4190495 -1.641095 1.448376 0.4190495 1.090305 1.448376 0.4190495 1.641095 1.42311 0.4295151 -1.641095 1.42311 0.4295151 0.06609576 -0.9002734 0 0.06609576 -0.9002734 0.0510255 1.090305 1.349492 0.0510255 1.090305 1.349492 0.3815263 1.090305 -0.8999187 0.3815263 1.090305 -0.8999187 0.4295151 0.06609576 1.448376 0.01046556 0.06609576 1.448376 0.4190495</float_array>
          <technique_common>
            <accessor source="#Plane-mesh-positions-array" count="304" stride="3">
              <param name="X" type="float"/>
              <param name="Y" type="float"/>
              <param name="Z" type="float"/>
            </accessor>
          </technique_common>
        </source>
        <source id="Plane-mesh-normals">
          <float_array id="Plane-mesh-normals-array" count="45">0 0.9807879 -0.1950772 0 1 0 1 0 0 0 0.9807879 0.1950772 -1 0 0 0 -1 0 0 0 1 0 0 -1 0 0.1950772 0.9807879 0 0.1950772 -0.9807879 0 0.3826816 -0.9238803 0 0.9238803 -0.3826816 0 0.9807821 -0.1951066 0 0.9238803 0.3826816 0 0.3826816 0.9238803</float_array>
          <technique_common>
            <accessor source="#Plane-mesh-normals-array" count="15" stride="3">
              <param name="X" type="float"/>
              <param name="Y" type="float"/>
              <param name="Z" type="float"/>
            </accessor>
          </technique_common>
        </source>
        <vertices id="Plane-mesh-vertices">
          <input semantic="POSITION" source="#Plane-mesh-positions"/>
        </vertices>
        <polylist material="Book-material" count="102">
          <input semantic="VERTEX" source="#Plane-mesh-vertices" offset="0"/>
          <input semantic="NORMAL" source="#Plane-mesh-normals" offset="1"/>
          <vcount>3 3 3 3 3 3 3 3 3 3 3 3 3 3 3 3 3 3 3 3 3 3 3 3 3 3 3 3 3 3 3 3 3 3 3 3 3 3 3 3 3 3 3 3 3 3 3 3 3 3 3 3 3 3 3 3 3 3 3 3 3 3 3 3 3 3 3 3 3 3 3 3 3 3 3 3 3 3 3 3 3 3 3 3 3 3 3 3 3 3 3 3 3 3 3 3 3 3 3 3 3 3 </vcount>
          <p>100 0 248 1 117 1 244 2 245 2 246 2 249 1 290 3 139 3 225 4 232 4 230 4 76 4 101 4 230 4 228 5 235 5 234 5 238 2 280 2 244 2 237 2 238 2 236 2 75 6 239 6 298 6 121 7 79 7 73 7 246 2 245 2 294 2 248 1 249 1 123 1 81 5 247 5 299 5 230 4 242 4 82 4 82 4 242 4 295 4 260 2 256 2 258 2 87 6 110 8 143 8 259 5 257 5 301 5 261 6 254 6 253 6 85 7 89 7 128 7 242 4 252 4 255 4 281 9 283 10 302 10 102 11 100 0 136 12 290 3 292 13 303 13 108 14 106 8 142 8 132 9 103 9 79 7 281 9 133 9 120 7 293 14 143 8 110 8 138 3 141 13 111 13 284 11 137 0 104 0 132 9 135 10 105 10 241 7 250 7 251 7 124 7 128 7 250 7 126 6 130 6 91 6 129 5 131 5 90 5 300 5 301 5 131 5 127 6 142 8 106 8 240 5 125 5 84 5 118 5 299 5 125 5 116 1 122 1 83 1 78 7 120 7 296 7 297 6 119 6 80 6 297 6 115 6 298 6 112 5 114 5 74 5 227 5 234 5 114 5 122 1 138 3 109 3 137 0 116 1 77 1 136 12 100 0 117 1 238 2 244 2 246 2 123 1 249 1 139 3 224 4 225 4 230 4 101 4 76 4 286 4 101 4 224 4 230 4 286 4 282 4 101 4 227 5 228 5 234 5 280 2 238 2 237 2 280 2 285 2 244 2 285 2 280 2 278 2 229 2 237 2 236 2 115 6 75 6 298 6 113 7 121 7 73 7 294 2 260 2 246 2 289 2 287 2 294 2 294 2 245 2 289 2 117 1 248 1 123 1 118 5 81 5 299 5 76 4 230 4 82 4 295 4 107 4 82 4 107 4 295 4 291 4 295 4 242 4 86 4 246 2 260 2 258 2 126 6 87 6 143 8 300 5 259 5 301 5 127 6 261 6 253 6 124 7 85 7 128 7 86 4 242 4 255 4 133 9 281 9 302 10 134 11 102 11 136 12 139 3 290 3 303 13 140 14 108 14 142 8 121 7 132 9 79 7 78 7 281 9 120 7 288 14 293 14 110 8 109 3 138 3 111 13 279 11 284 11 104 0 103 9 132 9 105 10 243 7 241 7 251 7 241 7 124 7 250 7 87 6 126 6 91 6 88 5 129 5 90 5 129 5 300 5 131 5 261 6 127 6 106 8 231 5 240 5 84 5 240 5 118 5 125 5 77 1 116 1 83 1 226 7 78 7 296 7 233 6 297 6 80 6 119 6 297 6 298 6 72 5 112 5 74 5 112 5 227 5 114 5 83 1 122 1 109 3 104 0 137 0 77 1</p>
        </polylist>
        <polylist material="Paper-material" count="68">
          <input semantic="VERTEX" source="#Plane-mesh-vertices" offset="0"/>
          <input semantic="NORMAL" source="#Plane-mesh-normals" offset="1"/>
          <vcount>3 3 3 3 3 3 3 3 3 3 3 3 3 3 3 3 3 3 3 3 3 3 3 3 3 3 3 3 3 3 3 3 3 3 3 3 3 3 3 3 3 3 3 3 3 3 3 3 3 3 3 3 3 3 3 3 3 3 3 3 3 3 3 3 3 3 3 3 </vcount>
          <p>186 4 188 4 182 4 190 1 192 1 189 1 194 2 196 2 193 2 185 5 183 5 197 5 22 7 26 7 24 7 27 6 23 6 21 6 48 7 61 9 60 9 68 14 70 8 71 8 66 3 67 3 223 13 62 11 64 12 65 0 60 9 61 9 222 10 55 6 173 6 58 6 54 6 71 8 70 8 45 1 51 1 50 1 48 7 49 7 41 7 51 1 67 3 66 3 64 12 45 1 44 1 266 4 268 4 262 4 270 1 272 1 269 1 274 2 276 2 273 2 265 5 263 5 277 5 94 7 98 7 96 7 99 6 95 6 93 6 120 7 133 9 132 9 140 14 142 8 143 8 138 3 139 3 303 13 134 11 136 12 137 0 132 9 133 9 302 10 127 6 253 6 130 6 126 6 143 8 142 8 117 1 123 1 122 1 120 7 121 7 113 7 123 1 139 3 138 3 136 12 117 1 116 1 184 4 186 4 182 4 187 1 190 1 189 1 191 2 194 2 193 2 195 5 185 5 197 5 20 7 22 7 24 7 25 6 27 6 21 6 49 7 48 7 60 9 213 14 68 14 71 8 69 13 66 3 223 13 204 11 62 11 65 0 63 10 60 9 222 10 54 6 55 6 58 6 55 6 54 6 70 8 44 1 45 1 50 1 216 7 48 7 41 7 50 1 51 1 66 3 65 0 64 12 44 1 264 4 266 4 262 4 267 1 270 1 269 1 271 2 274 2 273 2 275 5 265 5 277 5 92 7 94 7 96 7 97 6 99 6 93 6 121 7 120 7 132 9 293 14 140 14 143 8 141 13 138 3 303 13 284 11 134 11 137 0 135 10 132 9 302 10 126 6 127 6 130 6 127 6 126 6 142 8 116 1 117 1 122 1 296 7 120 7 113 7 122 1 123 1 138 3 137 0 136 12 116 1</p>
        </polylist>
        <polylist material="RedBook-material" count="102">
          <input semantic="VERTEX" source="#Plane-mesh-vertices" offset="0"/>
          <input semantic="NORMAL" source="#Plane-mesh-normals" offset="1"/>
          <vcount>3 3 3 3 3 3 3 3 3 3 3 3 3 3 3 3 3 3 3 3 3 3 3 3 3 3 3 3 3 3 3 3 3 3 3 3 3 3 3 3 3 3 3 3 3 3 3 3 3 3 3 3 3 3 3 3 3 3 3 3 3 3 3 3 3 3 3 3 3 3 3 3 3 3 3 3 3 3 3 3 3 3 3 3 3 3 3 3 3 3 3 3 3 3 3 3 3 3 3 3 3 3 </vcount>
          <p>28 0 168 1 45 1 164 2 165 2 166 2 169 1 210 3 67 3 145 4 152 4 150 4 4 4 29 4 150 4 148 5 155 5 154 5 158 2 200 2 164 2 157 2 158 2 156 2 3 6 159 6 218 6 49 7 7 7 1 7 166 2 165 2 214 2 168 1 169 1 51 1 9 5 167 5 219 5 150 4 162 4 10 4 10 4 162 4 215 4 180 2 176 2 178 2 15 6 38 8 71 8 179 5 177 5 221 5 181 6 174 6 173 6 13 7 17 7 56 7 162 4 172 4 175 4 201 9 203 10 222 10 30 11 28 0 64 12 210 3 212 13 223 13 36 14 34 8 70 8 60 9 31 9 7 7 201 9 61 9 48 7 213 14 71 8 38 8 66 3 69 13 39 13 204 11 65 0 32 0 60 9 63 10 33 10 161 7 170 7 171 7 52 7 56 7 170 7 54 6 58 6 19 6 57 5 59 5 18 5 220 5 221 5 59 5 55 6 70 8 34 8 160 5 53 5 12 5 46 5 219 5 53 5 44 1 50 1 11 1 6 7 48 7 216 7 217 6 47 6 8 6 217 6 43 6 218 6 40 5 42 5 2 5 147 5 154 5 42 5 50 1 66 3 37 3 65 0 44 1 5 1 64 12 28 0 45 1 158 2 164 2 166 2 51 1 169 1 67 3 144 4 145 4 150 4 29 4 4 4 206 4 29 4 144 4 150 4 206 4 202 4 29 4 147 5 148 5 154 5 200 2 158 2 157 2 200 2 205 2 164 2 205 2 200 2 198 2 149 2 157 2 156 2 43 6 3 6 218 6 41 7 49 7 1 7 214 2 180 2 166 2 209 2 207 2 214 2 214 2 165 2 209 2 45 1 168 1 51 1 46 5 9 5 219 5 4 4 150 4 10 4 215 4 35 4 10 4 35 4 215 4 211 4 215 4 162 4 14 4 166 2 180 2 178 2 54 6 15 6 71 8 220 5 179 5 221 5 55 6 181 6 173 6 52 7 13 7 56 7 14 4 162 4 175 4 61 9 201 9 222 10 62 11 30 11 64 12 67 3 210 3 223 13 68 14 36 14 70 8 49 7 60 9 7 7 6 7 201 9 48 7 208 14 213 14 38 8 37 3 66 3 39 13 199 11 204 11 32 0 31 9 60 9 33 10 163 7 161 7 171 7 161 7 52 7 170 7 15 6 54 6 19 6 16 5 57 5 18 5 57 5 220 5 59 5 181 6 55 6 34 8 151 5 160 5 12 5 160 5 46 5 53 5 5 1 44 1 11 1 146 7 6 7 216 7 153 6 217 6 8 6 47 6 217 6 218 6 0 5 40 5 2 5 40 5 147 5 42 5 11 1 50 1 37 3 32 0 65 0 5 1</p>
        </polylist>
      </mesh>
    </geometry>
  </library_geometries>
  <library_controllers/>
  <library_visual_scenes>
    <visual_scene id="Scene" name="Scene">
      <node id="Plane" name="Plane" type="NODE">
        <matrix sid="transform">1 0 0 0 0 1 0 0 0 0 1 0 0 0 0 1</matrix>
        <instance_geometry url="#Plane-mesh" name="Plane">
          <bind_material>
            <technique_common>
              <instance_material symbol="Book-material" target="#Book-material"/>
              <instance_material symbol="Paper-material" target="#Paper-material"/>
              <instance_material symbol="RedBook-material" target="#RedBook-material"/>
            </technique_common>
          </bind_material>
        </instance_geometry>
      </node>
    </visual_scene>
  </library_visual_scenes>
  <scene>
    <instance_visual_scene url="#Scene"/>
  </scene>
</COLLADA>